<?xml version="1.0" encoding="UTF-8"?>
<CustomTab xmlns="http://soap.sforce.com/2006/04/metadata">
    <frameHeight>600</frameHeight>
    <hasSidebar>true</hasSidebar>
    <label>Create myGard Support User</label>
    <mobileReady>false</mobileReady>
    <motif>Custom15: People</motif>
    <url>/flow/Create_myGard_Support_User_flow</url>
    <urlEncodingKey>UTF-8</urlEncodingKey>
</CustomTab>
