<?xml version="1.0" encoding="UTF-8"?>
<CustomTab xmlns="http://soap.sforce.com/2006/04/metadata">
    <customObject>true</customObject>
    <description>Central management for integration processes in and out of Salesforce.</description>
    <mobileReady>false</mobileReady>
    <motif>Custom37: Bridge</motif>
</CustomTab>
