<?xml version="1.0" encoding="UTF-8"?>
<CustomTab xmlns="http://soap.sforce.com/2006/04/metadata">
    <customObject>true</customObject>
    <description>Stores the request and response from web service callouts</description>
    <mobileReady>false</mobileReady>
    <motif>Custom94: Stethoscope</motif>
</CustomTab>
